"Part Number","Comment","Value","SCH_Footprint","HelpURL","Library Ref","Footprint Ref","Manufacturer","Manufacturer Part Number","Supplier 1","Supplier Part Number 1","Supplier 2","Supplier Part Number 2","Supplier 3","Supplier Part Number 3","Supplier 4","Supplier Part Number 4","Supplier 5","Supplier Part Number 5","Supplier 6","Supplier Part Number 6","Supplier 7","Supplier Part Number 7"
"UP_ATMEGA324PB-MN","ATMEGA324PB-MN","=""Manufacturer Part Number""","VQFN44","https://pl.mouser.com/datasheet/2/268/40001908A-1315300.pdf","UP_ATMEGA324PB-MN","VQFN44_7x7","Microchip","ATMEGA324PB-MNR","TME",,"RS Components",,"Farnell",,"Mouser","556-ATMEGA324PB-MNR","Digi-Key","ATMEGA324PB-MNRCT-ND","LCSC",,,
"UP_ATMEGA324PV-MU","ATMEGA324PV-MU","=""Manufacturer Part Number""","VQFN44","http://ww1.microchip.com/downloads/en/DeviceDoc/ATmega324PV-AVR-MCU-with-CIP-and-picopower-40002102A.pdf","UP_ATMEGA324PV-MU","VQFN44_7x7","Microchip","ATMEGA324PV-10MU","TME","ATMEGA324PV-10MU","RS Components",,"Farnell","1972082","Mouser","556-ATMEGA324PV10MU","Digi-Key","ATMEGA324PV-10MU-ND","LCSC",,,
"UP_ATMEGA328PB-MN","ATMEGA328PB-MN","=""Manufacturer Part Number""","QFN32","https://pl.mouser.com/datasheet/2/268/40001906A-1222909.pdf","UP_ATMEGA328PB-MN","QFN32_5x5","Microchip","ATMEGA328PB-MN","TME",,"RS Components",,"Farnell",,"Mouser",,"Digi-Key",,"LCSC",,,
"UP_ATMEGA32U4-MU","ATMEGA32U4-MU","=""Manufacturer Part Number""","QFN44","http://ww1.microchip.com/downloads/en/DeviceDoc/Atmel-7766-8-bit-AVR-ATmega16U4-32U4_Datasheet.pdf","UP_ATMEGA32U4-MU","QFN44_8x8","Microchip","ATMEGA32U4-MU","TME",,"RS Components",,"Farnell",,"Mouser",,"Digi-Key",,"LCSC",,,
"UP_ATMEGA644-10MU","ATMEGA644PV-10MU","=""Manufacturer Part Number""","VQFN44_7x7","https://ww1.microchip.com/downloads/en/DeviceDoc/Atmel-42744-ATmega644P_Datasheet.pdf","UP_ATMEGA644PV-10MU","VQFN44_7x7","Microchip","ATMEGA644PV-10MU","TME","ATMEGA644PV-10MU","RS Components",,"Farnell","1748529","Mouser",,"Digi-Key","ATMEGA644PV-10MU-ND","LCSC",,,
"UP_ATSAM3S4AA-MU","ATSAM3S4AA-MU","=""Manufacturer Part Number""","QFN48","http://ww1.microchip.com/downloads/en/DeviceDoc/Atmel-6500-32-bit-Cortex-M3-Microcontroller-SAM3S4-SAM3S2-SAM3S1_Datasheet.pdf","UP_ATSAM3S4AA-MU","QFN48_7x7","Atmel","ATSAM3S4AA-MU","TME","ATSAM3S4AA-MU","RS Components",,"Farnell","2318835","Mouser","556-ATSAM3S4AA-MU","Digi-Key","ATSAM3S4AA-MU-ND","LCSC",,,
"UP_EZR32WG330F256R61G","EZR32WG330F256R61G","=""Manufacturer Part Number""","QFN64","https://www.silabs.com/documents/public/data-sheets/EZR32WG330_DataSheet.pdf","UP_EZR32WG330","QFN64_7x7","Silicon Labs","EZR32WG330F256R61G","TME",,"RS Components",,"Farnell","2475236","Mouser",,"Digi-Key","EZR32WG330F256R61G-B0-ND","LCSC",,,
"UP_EZR32WG330F256R69G-B0","EZR32WG330F256R69G","=""Manufacturer Part Number""","QFN64","https://pl.mouser.com/ProductDetail/Silicon-Labs/EZR32WG330F256R69G-B0?qs=sGAEpiMZZMuuc7S3exxspn1Q47jogI6Ruq2%2fL6l%252bIwVYxE7%2fT8eoQg%3d%3d","UP_EZR32WG330","QFN64_7x7","Silicon Labs","EZR32WG330F256R69G-B0","TME",,"RS Components",,"Farnell",,"Mouser","634-32WG330F256R69G","Digi-Key","EZR32WG330F256R69G-B0R-ND","LCSC",,,
"UP_MKL25Z128VLK4","MKL25Z128VLK4","=""Manufacturer Part Number""","LQFP80","https://www.nxp.com/docs/en/data-sheet/KL25P80M48SF0.pdf","UP_MKL25Z128VLK4","LQFP80_12x12","NXP","MKL25Z128VLK4","TME",,"RS Components","7716881P","Farnell","2212797","Mouser","841-MKL25Z128VLK4","Digi-Key","MKL25Z128VLK4-ND","LCSC",,,
"UP_MKV58F1M0VLQ24","MKV58F1M0VLQ24","=""Manufacturer Part Number""","LQFP144","https://www.nxp.com/docs/en/data-sheet/KV5XP144M240.pdf","UP_MKV58F1M0VLQ24","LQFP144_20x20","NXP","MKV58F1M0VLQ24","TME",,"RS Components",,"Farnell","2890236","Mouser","841-MKV58F1M0VLQ24","Digi-Key","MKV58F1M0VLQ24-ND","LCSC",,,
"UP_PIC10F200T-IOT","UP_PIC10F200T-I/OT","=""Manufacturer Part Number""","SOT23-6","http://ww1.microchip.com/downloads/en/DeviceDoc/40001239F.pdf","UP_PIC10F200T-IOT","SOT23-6_SC74A_SOT753","Microchip","PIC10F200T-I/OT","TME","PIC10F200T-I/OT","RS Components","6668501P","Farnell","1216921","Mouser","579-PIC10F200T-I/OT","Digi-Key","PIC10F200T-I/OTCT-ND","LCSC",,,
"UP_PMS150C-U6","PMS150C-U6","=""Manufacturer Part Number""","SOT23-6","https://datasheet.lcsc.com/szlcsc/1812131721_PADAUK-Tech-PMS150C-U06_C168658.pdf","UP_PMS150C-U6","SOT23-6_SC74A_SOT753","Padauk","PMS150C-U6","TME",,"RS Components",,"Farnell",,"Mouser",,"Digi-Key",,"LCSC",,"LCSC","C168658"
"UP_RM57L843BZWTT","RM57L843BZWTT","=""Manufacturer Part Number""","NFBGA337","https://www.ti.com/lit/ds/symlink/rm57l843.pdf","UP_RM57L843BZWTT","NFBGA337","Texas Instruments","RM57L843BZWTT","TME",,"RS Components",,"Farnell",,"Mouser","595-RM57L843BZWTT","Digi-Key","296-44700-ND","LCSC",,,
"UP_STM32F070CBT6","STM32F070CBT6","=""Manufacturer Part Number""","LQFP48","https://www.st.com/resource/en/datasheet/stm32f070cb.pdf","UP_STM32F070Cx","LQFP48_7x7","STMicroelectronics","STM32F070CBT6","TME","STM32F070CBT6","RS Components","110-6133","Farnell","2750627","Mouser","511-STM32F070CBT6","Digi-Key","497-15099-ND","LCSC","C74909",,
"UP_STM32F103C8T6","STM32F103C8T6","=""Manufacturer Part Number""","LQFP48","https://datasheet.octopart.com/STM32F103C8T6-STMicroelectronics-datasheet-48026265.pdf","UP_STM32F103Cx","LQFP48_7x7","STMicroelectronics","STM32F103C8T6","TME","STM32F103C8T6","RS Components","1023545","Farnell","1447637","Mouser","511-STM32F103C8T6","Digi-Key","497-6063-ND","LCSC",,,
"UP_STM32F103RBT6","STM32F103RBT6","=""Manufacturer Part Number""","LQFP64","https://datasheet.octopart.com/STM32F103RBT6-STMicroelectronics-datasheet-48026265.pdf","UP_STM32F103Rx","LQFP64_10x10","STMicroelectronics","STM32F103RBT6","TME","STM32F103RBT6","RS Components","402251","Farnell","1447640","Mouser","511-STM32F103RBT6","Digi-Key","497-6066-ND","LCSC",,,
"UP_STM32F205RET6","STM32F205RET6","=""Manufacturer Part Number""","LQFP64","https://datasheet.octopart.com/STM32F205RET6-STMicroelectronics-datasheet-12516244.pdf","UP_STM32F205Rx","LQFP64_10x10","STMicroelectronics","STM32F205RET6","TME","STM32F205RET6","RS Components",,"Farnell","2060897","Mouser","511-STM32F205RET6","Digi-Key","497-11155-ND","LCSC",,,
"UP_STM32F301R8T6","STM32F301R8T6","=""Manufacturer Part Number""","LQFP64","https://www.st.com/resource/en/datasheet/stm32f301c6.pdf","UP_STM32F301Rx","LQFP64_10x10","STMicroelectronics","STM32F301R8T6","TME",,"RS Components",,"Farnell","2424416","Mouser","511-STM32F301R8T6","Digi-Key","497-17413-ND","LCSC",,,
"UP_STM32F303CCT6","STM32F303CCT6","=""Manufacturer Part Number""","LQFP48","https://pl.mouser.com/datasheet/2/389/dm00058181-1797663.pdf","UP_STM32F303CxT","LQFP48_7x7","STMicroelectronics","STM32F303CCT6","TME","STM32F303CCT6","RS Components","1962024","Farnell","2215113","Mouser","511-STM32F303CCT6","Digi-Key","497-13318-ND","LCSC",,,
"UP_STM32F334C8T6","STM32F334C8T6","=""Manufacturer Part Number""","LQFP48","https://pl.mouser.com/datasheet/2/389/dm00097745-1798143.pdf","UP_STM32F334CxT","LQFP48_7x7","STMicroelectronics","STM32F334C8T6","TME",,"RS Components",,"Farnell","2469569","Mouser","511-STM32F334C8T6","Digi-Key","497-14950-5-ND","LCSC",,,
"UP_STM32F334K8T6","STM32F334K8T6","=""Manufacturer Part Number""","LQFP32","https://dl.btc.pl/kamami_wa/stm32f334x.pdf","UP_STM32F334Kx","LQFP32_7x7","STMicroelectronics","STM32F334K8T6","TME",,"RS Components",,"Farnell","2469571","Mouser","511-STM32F334K8T6","Digi-Key","497-14953-5-ND","LCSC",,,
"UP_STM32F373C8T6","STM32F373C8T6","=""Manufacturer Part Number""","LQFP48","https://www.st.com/resource/en/datasheet/stm32f373cc.pdf","UP_STM32F373CxT","LQFP48_7x7","STMicroelectronics","STM32F373C8T6","TME","STM32F373C8T6","RS Components","795-9164","Farnell","2333274","Mouser","511-STM32F373C8T6","Digi-Key","497-13306-ND","LCSC",,,
"UP_STM32F401VCH6","STM32F401VCH6","=""Manufacturer Part Number""","UFBGA100","https://www.st.com/resource/en/datasheet/stm32f401vc.pdf","UP_STM32F401VxH","UFBGA100_7x7","STMicroelectronics","STM32F401VCH6","TME",,"RS Components",,"Farnell","2432111","Mouser","511-STM32F401VCH6","Digi-Key","STM32F401VCH6-ND","LCSC",,,
"UP_STM32F405RGT6TR","STM32F405RBT6","=""Manufacturer Part Number""","LQFP64","https://datasheet.octopart.com/STM32F405RGT6TR-STMicroelectronics-datasheet-12357803.pdf","UP_STM32F405Rx","LQFP64_10x10","STMicroelectronics","STM32F405RGT6TR","TME","STM32F405RGT6TR","RS Components","7926013","Farnell","3129633","Mouser","511-STM32F405RGT6TR","Digi-Key","497-17432-6-ND","LCSC",,,
"UP_STM32F427VIT6TR","STM32F427VIT6TR","=""Manufacturer Part Number""","LQFP100","https://datasheet.octopart.com/STM32F427VIT6TR-STMicroelectronics-datasheet-16349496.pdf","UP_STM32F427VxT","LQFP100_14x14","STMicroelectronics","STM32F427VIT6TR","TME",,"RS Components",,"Farnell","3365455","Mouser","511-STM32F427VIT6TR","Digi-Key","497-18790-1-ND","LCSC",,,
"UP_STM32F722IEK6","STM32F722IEK6","=""Manufacturer Part Number""","UFBGA176","https://pl.mouser.com/datasheet/2/389/dm00330506-1798964.pdf","UP_STM32F722Ix","UFBGA176_10x10","STMicroelectronics","STM32F722IEK6","TME",,"RS Components",,"Farnell","2725145","Mouser","511-STM32F722IEK6","Digi-Key","497-17183-ND","LCSC",,"Vertical","STM32F722IEK6"
"UP_STM32F722ZET6","STM32F722ZET6","=""Manufacturer Part Number""","LQFP144","https://www.st.com/resource/en/datasheet/stm32f722ze.pdf","UP_STM32F722Zx","LQFP144_20x20","STMicroelectronics","STM32F722ZET6","TME","STM32F722ZET6","RS Components",,"Farnell","2725152","Mouser","511-STM32F722ZET6","Digi-Key","497-18558-ND","LCSC",,"Avnet","STM32F722ZET6"
"UP_STM32G071GBU6","STM32G071GBU6","=""Manufacturer Part Number""","UFQFPN28","https://www.st.com/resource/en/datasheet/stm32g071gb.pdf","UP_STM32G071GxU","UFQFPN28","STMicroelectronics","STM32G071GBU6","TME","STM32G071GB","RS Components",,"Farnell","2980894","Mouser","511-STM32G071GBU6","Digi-Key","497-18343-ND","LCSC","C529347",,
"UP_STM32G0B1CEU6","STM32G0B1CEU6","=""Manufacturer Part Number""","QFN32","https://www.st.com/resource/en/datasheet/stm32g0b1ce.pdf","UP_STM32G0B1CxU","QFN48_7x7","STMicroelectronics","STM32G0B1CEU6","TME",,"RS Components","2162713","Farnell","3652239","Mouser","511-STM32G0B1CEU6","Digi-Key","497-STM32G0B1CEU6-ND","LCSC",,"Avnet","STM32G0B1CEU6"
"UP_STM32G0B1KEU6","STM32G0B1KEU6","=""Manufacturer Part Number""","QFN32","https://www.st.com/resource/en/datasheet/stm32g0b1ke.pdf","UP_STM32G0B1KxU","QFN32_5x5","STMicroelectronics","STM32G0B1KEU6","TME",,"RS Components","2283042","Farnell","3772957","Mouser","511-STM32G0B1KEU6","Digi-Key","497-STM32G0B1KEU6-ND","LCSC",,"Avnet","STM32G0B1KEU6"
"UP_STM32G474RET6","STM32G474RET6","=""Manufacturer Part Number""","LQFP64","https://datasheet.octopart.com/STM32G474RET6-STMicroelectronics-datasheet-136696182.pdf","UP_STM32G474Rx","LQFP64_10x10","STMicroelectronics","STM32G474RET6","TME",,"RS Components","1939860","Farnell","3132418","Mouser","511-STM32G474RET6","Digi-Key","497-STM32G474RET6-ND","LCSC",,,
"UP_STM32G484VET6","STM32G484VET6","=""Manufacturer Part Number""","LQFP100","https://pl.mouser.com/datasheet/2/389/dm00612121-1799590.pdf","UP_STM32G484xE","LQFP100_14x14","STMicroelectronics","STM32G484VET6","TME",,"RS Components","1939867","Farnell","3246933","Mouser","511-STM32G484VET6","Digi-Key","STM32G484VET6-ND","LCSC",,,
"UP_STM32G491REI6","STM32G491REI6","=""Manufacturer Part Number""","UFBGA64","https://pl.mouser.com/datasheet/2/389/dm00654712-2042072.pdf","UP_STM32G491xEI","UFBGA64_5x5","STMicroelectronics","STM32G491REI6","TME",,"RS Components","2150846","Farnell","3648861","Mouser","511-STM32G491REI6","Digi-Key","497-STM32G491REI6-ND","LCSC",,,
"UP_STM32G491RET6","STM32G491RET6","=""Manufacturer Part Number""","LQFP64","https://pl.mouser.com/datasheet/2/389/dm00654712-2042072.pdf","UP_STM32G491xET","LQFP64_10x10","STMicroelectronics","STM32G491RET6","TME",,"RS Components",,"Farnell","3648859","Mouser","511-STM32G491RET6","Digi-Key","497-STM32G491RET6-ND","LCSC",,,
"UP_STM32L051K8T6","STM32L051K8T6","=""Manufacturer Part Number""","LQFP32","https://www.st.com/content/ccc/resource/technical/document/datasheet/9a/75/bd/16/0f/fd/49/19/DM00108219.pdf/files/DM00108219.pdf/jcr:content/translations/en.DM00108219.pdf","UP_STM32L051KxTx","LQFP32_7x7","STMicroelectronics","STM32L051K8T6","TME","STM32L051K8T6","RS Components","1107088","Farnell","2444626","Mouser","511-STM32L051K8T6","Digi-Key","497-14901-ND","LCSC",,,
"UP_STM32L051K8U6","STM32L051K8U6","=""Manufacturer Part Number""","UFQFPN32","http://www.st.com/content/ccc/resource/technical/document/datasheet/9a/75/bd/16/0f/fd/49/19/DM00108219.pdf/files/DM00108219.pdf/jcr:content/translations/en.DM00108219.pdf","UP_STM32L051KXU","QFN32_5x5","STMicroelectronics","STM32L051K8U6","TME",,"RS Components",,"Farnell","2488323","Mouser","511-STM32L051K8U6","Digi-Key","STM32L051K8U6-ND","LCSC",,,
"UP_STM32L476RGT6","STM32L476RGT6","=""Manufacturer Part Number""","LQFP64","https://datasheet.octopart.com/STM32L476RGT6-STMicroelectronics-datasheet-59262024.pdf","UP_STM32L476Rx","LQFP64_10x10","STMicroelectronics","STM32L476RGT6","TME","STM32L476RGT6","RS Components","8967692","Farnell","2494460","Mouser","511-STM32L476RGT6","Digi-Key","497-15877-ND","LCSC",,,
"UP_STM32L4A6VGT6","STM32L4A6VGT6","=""Manufacturer Part Number""","LQFP100","https://www.st.com/resource/en/datasheet/stm32l4a6vg.pdf","UP_STM32L4A6VGTx","LQFP100_14x14","STMicroelectronics","STM32L4A6VGT6","TME",,"RS Components","1894039","Farnell","3129712","Mouser","511-STM32L4A6VGT6","Digi-Key","497-17732-ND","LCSC",,,
"UP_STM32L4A6ZGT6","STM32L4A6ZGT6","=""Manufacturer Part Number""","LQFP144","https://www.st.com/resource/en/datasheet/stm32l4a6vg.pdf","UP_STM32L4A6ZGTx","LQFP144_20x20","STMicroelectronics","STM32L4A6ZGT6","TME",,"RS Components","1750735","Farnell","3132650","Mouser","511-STM32L4A6ZGT6","Digi-Key","497-17733-ND","LCSC",,,
"UP_STM32L562MEY6P","STM32L562MEY6P","=""Manufacturer Part Number""","WLCSP81","https://www.st.com/resource/en/datasheet/stm32l562re.pdf","UP_STM32L562MEYxP","WLCSP81_4.36x4.07","STMicroelectronics","STM32L562MEY6P","TME",,"RS Components",,"Farnell","3933193","Mouser","511-STM32L562MEY6PTR","Digi-Key","497-STM32L562MEY6PTR-ND","LCSC",,,
"UP_STM32WLE5CBU6","STM32WLE5CBU6","=""Manufacturer Part Number""","QFN48","https://www.st.com/resource/en/datasheet/stm32wle5c8.pdf","UP_STM32WLxxC","UFQFPN48","STMicroelectronics","STM32WLE5CBU6","TME",,"RS Components",,"Farnell",,"Mouser",,"Digi-Key",,"LCSC",,"Avnet","STM32WLE5CBU6"
