"Part Number","Center Frequency (MHz)","Bandwidth (MHz)","Max Power (dBm)","SCH_Footprint","Comment","Value","HelpURL","Library Ref","Footprint Ref","Manufacturer","Manufacturer Part Number","Supplier 1","Supplier Part Number 1","Supplier 2","Supplier Part Number 2","Supplier 3","Supplier Part Number 3","Supplier 4","Supplier Part Number 4","Supplier 5","Supplier Part Number 5","Supplier 6","Supplier Part Number 6","Supplier 7","Supplier Part Number 7"
"U_B3725",868.30,2.00,13.00,,"=""Manufacturer Part Number""","=""Manufacturer Part Number""","http://www.mouser.com/ds/2/400/B3725-525464.pdf","U_SAW6_2_5","SAW_DCC6_SM3030-6_3x3","TDK","B39871B3725U410","TME",,"RS Components",,"Farnell",,"Mouser","871-B39871B3725U410","Digi-Key",,"LCSC",,,
"U_B3742",400.00,250.00,10.00,"SM3030","=""Manufacturer Part Number""","=""Manufacturer Part Number""","https://www.mouser.com/ds/2/842/B3742-1092444.pdf","U_SAW6_1_4","SAW_DCC6_SM3030-6_3x3","Qualcomm","B39401B3742H110","TME",,"RS Components",,"Farnell",,"Mouser",,"Digi-Key",,"LCSC",,,
"U_B3744",868.30,0.60,10.00,,"=""Manufacturer Part Number""","=""Manufacturer Part Number""","http://datasheet.octopart.com/B39871B3744H110-EPCOS-datasheet-86700859.pdf","U_SAW6_2_4","SAW_DCC6_SM3030-6_3x3","TDK","B39871B3744H110","TME",,"RS Components",,"Farnell",,"Mouser","871-B39871B3744H110","Digi-Key",,"LCSC",,,
"U_B3749",869.30,0.40,10.00,,"=""Manufacturer Part Number""","=""Manufacturer Part Number""","http://www.mouser.com/ds/2/400/B3749-1085825.pdf","U_SAW6_2_4","SAW_DCC6_SM3030-6_3x3","TDK","B39871B3749H110","TME",,"RS Components",,"Farnell",,"Mouser","871-B39871B3749H110","Digi-Key",,"LCSC",,,
"U_B3942",169.50,0.20,10.00,,"=""Manufacturer Part Number""","=""Manufacturer Part Number""","https://www.mouser.com/ds/2/842/B3942-1092456.pdf","U_SAW8_1_5","SAW_QCC8C_SM5050-8_5x5","Qualcomm","B39171B3942U310","TME",,"RS Components",,"Farnell",,"Mouser","871-B39171B3942U310","Digi-Key",,"LCSC",,,
"U_RF1419D",403.50,7.50,10.00,"SM3838","=""Manufacturer Part Number""","=""Manufacturer Part Number""","https://www.rfmi.co/pdf/Datasheet/RF1419D.pdf","U_SAW8_2_6","SAW_QCC8B_SM3838-8_3.8x3.8","RFMi","RF1419D","TME",,"RS Components",,"Farnell",,"Mouser","198-RF1419D","Digi-Key","2410-RF1419D-ND","LCSC",,,
"U_RF3319E",868.95,0.90,10.00,,"=""Manufacturer Part Number""","=""Manufacturer Part Number""","https://www.mouser.com/ds/2/281/rf3319e-784890.pdf","U_SAW6_1_4","SAW_DCC6_SM3030-6_3x3","Murata","RF3319E","TME",,"RS Components",,"Farnell",,"Mouser","719-RF3319E","Digi-Key",,"LCSC",,,
"U_RF3336D",868.35,0.65,10.00,,"=""Manufacturer Part Number""","=""Manufacturer Part Number""","https://www.mouser.com/ds/2/281/rf3336d-784891.pdf","U_SAW8_2_6","SAW_QCC8B_SM3838-8_3.8x3.8","Murata","RF3336D","TME",,"RS Components",,"Farnell",,"Mouser","719-RF3336D","Digi-Key",,"LCSC",,,
"U_SF2120C",149.00,2.70,10.00,,"=""Manufacturer Part Number""","=""Manufacturer Part Number""","https://wireless.murata.com/RFM/data/sf2120c.pdf","U_SAW8_1_5","SAW_QCC8C_SM5050-8_5x5","Murata","SF2120C","TME",,"RS Components",,"Farnell",,"Mouser","719-SF2120C","Digi-Key",,"LCSC",,,
"U_SF2314E",866.50,7.00,18.00,"SM3030","=""Manufacturer Part Number""","=""Manufacturer Part Number""","https://www.mouser.com/ds/2/281/sf2314e-1100145.pdf","U_SAW6_2_5","SAW_DCC6_SM3030-6_3x3","Murata","SF2314E","TME",,"RS Components",,"Farnell",,"Mouser",,"Digi-Key",,"LCSC",,,
"U_SF2425E",868.60,1.50,15.00,"SM3030-8","=""Manufactorer Part Number""","=""Manufacturer Part Number""","https://pl.mouser.com/datasheet/2/281/sf2425e-1485242.pdf","U_SAW8_2_6","SAW_SM3030-8_3x3","Murata","SF2425E","TME",,"RS Components",,"Farnell",,"Mouser","81-SF2425E","Digi-Key",,"LCSC",,,
"U_TA0649A",433.92,8.00,10.00,"SM3030","=""Manufacturer Part Number""","=""Manufacturer Part Number""","https://www.golledge.com/media/2065/ma09182.pdf","U_SAW6_2_5","SAW_DCC6_SM3030-6_3x3","Tai-Saw","TA0649A","TME",,"RS Components",,"Farnell",,"Mouser",,"Digi-Key",,"LCSC",,,
"U_TA1362A",868.30,8.00,18.00,,"=""Manufacturer Part Number""","=""Manufacturer Part Number""","https://www.taisaw.com/upload/product/TA1362A%20_Rev.1.0_.pdf","U_SAW6_2_5","SAW_SM3838-6_3.8x3.8","Tai-Saw","TA1362A","TME",,"RS Components",,"Farnell",,"Mouser",,"Digi-Key",,"LCSC",,,
"U_TA155FD",155.00,2.10,0.00,"TA155FD","=""Manufacturer Part Number""","=""Manufacturer Part Number""","http://www.taisaw.com/upload/product/TA155FD%20_Rev.7.0_.pdf","U_SAW8_2_6","SAW_TA155FD_5x5","Tai-Saw","TA155FD","TME",,"RS Components",,"Farnell",,"Mouser",,"Digi-Key",,"LCSC",,"Component Distributors Inc.","TA155FD"
"U_TB0195A",70.00,3.50,20.00,,"=""Manufacturer Part Number""","=""Manufacturer Part Number""","https://www.taisaw.com/upload/product/TB0195A%20_Rev.2.0_.pdf","U_SAW12_11_5","SAW_SMP-53_13.3x6.5","Tai-Saw","TB0195A","TME",,"RS Components",,"Farnell",,"Mouser",,"Digi-Key",,"LCSC",,,
"U_TB0299A",400.00,7.30,0.00,,"=""Manufacturer Part Number""","=""Manufacturer Part Number""","https://www.taisaw.com/upload/product/TB0299A%20_Rev.1.0_.pdf","U_SAW8_3_7","SAW_8pin_3.0x3.0_1","Tai-Saw","TB0299A","TME",,"RS Components",,"Farnell",,"Mouser",,"Digi-Key",,"LCSC",,,
"U_TB0391A",240.00,6.80,10.00,,"=""Manufacturer Part Number""","=""Manufacturer Part Number""","https://www.taisaw.com/upload/product/TB0391A%20_Rev.2.0_.pdf","U_SAW12_10_4","SAW_12pin_7.0x5.0","Tai-Saw","TB0391A","TME",,"RS Components",,"Farnell",,"Mouser",,"Digi-Key",,"LCSC",,,
"U_TB0464A",400.00,0.25,10.00,,"=""Manufacturer Part Number""","=""Manufacturer Part Number""","https://www.rfmw.com/datasheets/tai-saw/TB0464A%20_Rev.1.0_.pdf","U_SAW8_1_5","SAW_QCC8B_SM3838-8_3.8x3.8","Tai-Saw","TB0464A","TME",,"RS Components",,"Farnell",,"Mouser",,"Digi-Key",,"LCSC",,,
